…
```r
library(tidyverse)
library(datos)
```

## Datos sobre vuelos {#nycflights13-relational}

Usaremos datos sobre vuelos desde y hacia Nueva York para aprender sobre datos relacionales^[NdT. El texto original se refiere al paquete nycflights13 cuya traducción se incluye en el paquete **datos**.]. El paquete **datos** contiene cuatro tablas que se relacionan con la tabla `vuelos` que se usó en el capítulo sobre [transformación de datos]:

* `aerolineas` permite observar el nombre completo de la aerolínea a partir de su código abreviado:

 
 ```r
 aerolineas
 #> # A tibble: 16 x 2
 #>   aerolinea nombre                  
 #>   <chr>     <chr>                   
 #> 1 9E        Endeavor Air Inc.       
 #> 2 AA        American Airlines Inc.  
 #> 3 AS        Alaska Airlines Inc.    
 #> 4 B6        JetBlue Airways         
 #> 5 DL        Delta Air Lines Inc.    
 #> 6 EV        ExpressJet Airlines Inc.
 #> # … with 10 more rows
 ```

* `aeropuertos` entrega información de cada aeropuerto, identificado por su `código`:

 
 ```r
 aeropuertos
 #> # A tibble: 1,458 x 8
 #>   codigo_aeropuer… nombre latitud longitud altura zona_horaria horario_verano
 #>   <chr>            <chr>    <dbl>    <dbl>  <dbl>        <dbl> <chr>         
 #> 1 04G              Lansd…    41.1    -80.6   1044           -5 A             
 #> 2 06A              Moton…    32.5    -85.7    264           -6 A             
 #> 3 06C              Schau…    42.0    -88.1    801           -6 A             
 #> 4 06N              Randa…    41.4    -74.4    523           -5 A             
 #> 5 09J              Jekyl…    31.1    -81.4     11           -5 A             
 #> 6 0A9              Eliza…    36.4    -82.2   1593           -5 A             
 #> # … with 1,452 more rows, and 1 more variable: zona_horaria_iana <chr>
 ```

* `aviones` entrega información de cada avión, identificado por su `codigo_cola`:

 
 ```r
 aviones
 #> # A tibble: 3,322 x 9
 #>   codigo_cola  anio tipo  fabricante modelo motores asientos velocidad
 #>   <chr>       <int> <chr> <chr>      <chr>    <int>    <int>     <int>
 #> 1 N10156       2004 Ala … EMBRAER    EMB-1…       2       55        NA
 #> 2 N102UW       1998 Ala … AIRBUS IN… A320-…       2      182        NA
 #> 3 N103US       1999 Ala … AIRBUS IN… A320-…       2      182        NA
 #> 4 N104UW       1999 Ala … AIRBUS IN… A320-…       2      182        NA
 #> 5 N10575       2002 Ala … EMBRAER    EMB-1…       2       55        NA
 #> 6 N105UW       1999 Ala … AIRBUS IN… A320-…       2      182        NA
 #> # … with 3,316 more rows, and 1 more variable: tipo_motor <chr>
 ```

* `clima` entrega información del clima en cada aeropuerto de Nueva York para cada hora:

 
 ```r
 clima
 #> # A tibble: 26,115 x 15
 #>   origen  anio   mes   dia  hora temperatura punto_rocio humedad
 #>   <chr>  <int> <int> <int> <int>       <dbl>       <dbl>   <dbl>
 #> 1 EWR     2013     1     1     1        39.0        26.1    59.4
 #> 2 EWR     2013     1     1     2        39.0        27.0    61.6
 #> 3 EWR     2013     1     1     3        39.0        28.0    64.4
 #> 4 EWR     2013     1     1     4        39.9        28.0    62.2
 #> 5 EWR     2013     1     1     5        39.0        28.0    64.4
 #> 6 EWR     2013     1     1     6        37.9        28.0    67.2
 #> # … with 26,109 more rows, and 7 more variables: direccion_viento <dbl>,
 #> #   velocidad_viento <dbl>, velocidad_rafaga <dbl>, precipitacion <dbl>,
 #> #   presion <dbl>, visibilidad <dbl>, fecha_hora <dttm>
 ```
…
A veces una tabla puede no tener una clave primaria explícita: cada fila es una observación, pero no existe una combinación de variables que la identifique de forma confiable. Por ejemplo, ¿cuál es la clave primaria en la tabla `vuelos`? Quizás pienses que podría ser la fecha más el vuelo o el código de cola, pero ninguna de esas variables es única:


```r
vuelos %>%
  count(anio, mes, dia, vuelo) %>%
  filter(n > 1)
#> # A tibble: 29,768 x 5
#>    anio   mes   dia vuelo     n
#>   <int> <int> <int> <int> <int>
#> 1  2013     1     1     1     2
#> 2  2013     1     1     3     2
#> 3  2013     1     1     4     2
#> 4  2013     1     1    11     3
#> 5  2013     1     1    15     2
#> 6  2013     1     1    21     2
#> # … with 29,762 more rows

vuelos %>%
  count(anio, mes, dia, codigo_cola) %>%
  filter(n > 1)
#> # A tibble: 64,928 x 5
#>    anio   mes   dia codigo_cola     n
#>   <int> <int> <int> <chr>       <int>
#> 1  2013     1     1 N0EGMQ          2
#> 2  2013     1     1 N11189          2
#> 3  2013     1     1 N11536          2
#> 4  2013     1     1 N11544          3
#> 5  2013     1     1 N11551          2
#> 6  2013     1     1 N12540          2
#> # … with 64,922 more rows
```
…
    ¿Cómo caracterizarías las relación entre `bateadores`, `lanzadores` y `jardineros`?

## Uniones de transformación {#mutating-joins}

La primera herramienta que miraremos para combinar pares de variables es la __unión de transformación__ (_mutating join_). Una unión de transformación te permite combinar variables a partir de dos tablas. Primero busca coincidencias de observaciones de acuerdo a sus claves y luego copia las variables de una tabla en la otra.

Tal como `mutate()`, las funciones de unión agregan variables hacia la derecha, por lo que si tienes muchas variables inicialmente, las nuevas variables no se imprimirán. Para estos ejemplos, crearemos un conjunto de datos más angosto para que sea más fácil ver qué es lo que está ocurriendo: 


```r
vuelos2 <- vuelos %>%
  select(anio:dia, hora, origen, destino, codigo_cola, aerolinea)
vuelos2
#> # A tibble: 336,776 x 8
#>    anio   mes   dia  hora origen destino codigo_cola aerolinea
#>   <int> <int> <int> <dbl> <chr>  <chr>   <chr>       <chr>    
#> 1  2013     1     1     5 EWR    IAH     N14228      UA       
#> 2  2013     1     1     5 LGA    IAH     N24211      UA       
#> 3  2013     1     1     5 JFK    MIA     N619AA      AA       
#> 4  2013     1     1     5 JFK    BQN     N804JB      B6       
#> 5  2013     1     1     6 LGA    ATL     N668DN      DL       
#> 6  2013     1     1     5 EWR    ORD     N39463      UA       
#> # … with 336,770 more rows
```

(Recuerda que en RStudio puedes también usar `View()` para evitar este problema.)

Imagina que quieres incluir el nombre completo de la aerolínea en `vuelos2`. Puedes combinar los datos de `aerolinas` y `vuelos2` con `left_join()` (*union_izquierda*):


```r
vuelos2 %>%
  select(-origen, -destino) %>%
  left_join(aerolineas, by = "aerolinea")
#> # A tibble: 336,776 x 7
#>    anio   mes   dia  hora codigo_cola aerolinea nombre                
#>   <int> <int> <int> <dbl> <chr>       <chr>     <chr>                 
#> 1  2013     1     1     5 N14228      UA        United Air Lines Inc. 
#> 2  2013     1     1     5 N24211      UA        United Air Lines Inc. 
#> 3  2013     1     1     5 N619AA      AA        American Airlines Inc.
#> 4  2013     1     1     5 N804JB      B6        JetBlue Airways       
#> 5  2013     1     1     6 N668DN      DL        Delta Air Lines Inc.  
#> 6  2013     1     1     5 N39463      UA        United Air Lines Inc. 
#> # … with 336,770 more rows
```

El resultado de unir `aerolineas` y `vuelos2` es la inclusión de una variable adicional: `nombre`. Esta es la razón de que llamemos unión de transformación a este tipo de unión. En este caso, podrías obtener el mismo resultado usando `mutate()` junto a las operaciones de filtro de R base:


```r
vuelos2 %>%
  select(-origen, -destino) %>%
  mutate(nombre = aerolineas$nombre[match(aerolinea, aerolineas$aerolinea)])
#> # A tibble: 336,776 x 7
#>    anio   mes   dia  hora codigo_cola aerolinea nombre                
#>   <int> <int> <int> <dbl> <chr>       <chr>     <chr>                 
#> 1  2013     1     1     5 N14228      UA        United Air Lines Inc. 
#> 2  2013     1     1     5 N24211      UA        United Air Lines Inc. 
#> 3  2013     1     1     5 N619AA      AA        American Airlines Inc.
#> 4  2013     1     1     5 N804JB      B6        JetBlue Airways       
#> 5  2013     1     1     6 N668DN      DL        Delta Air Lines Inc.  
#> 6  2013     1     1     5 N39463      UA        United Air Lines Inc. 
#> # … with 336,770 more rows
```
…
### Definiendo las columnas clave {#join-by}

Hasta ahora, los pares de tablas siempre se han unido de acuerdo a una única variable y esa variable tiene el mismo nombre en ambas tablas. Esta restricción se expresa de la forma `by = "key"`. Puedes usar otros valores de `by` para conectar las tablas de otras maneras:

  * Por defecto, `by = NULL`, usa todas las variables que aparecen en ambas tablas, 
    lo que se conoce como unión __natural__. Por ejemplo, las tablas vuelos y clima 
    coinciden en sus variables comunes: `anio`, `mes`, `dia`, `hora` y `origen`.

 
 ```r
 vuelos2 %>%
  left_join(clima)
 #> Joining, by = c("anio", "mes", "dia", "hora", "origen")
 #> # A tibble: 336,776 x 18
 #>    anio   mes   dia  hora origen destino codigo_cola aerolinea temperatura
 #>   <int> <int> <int> <dbl> <chr>  <chr>   <chr>       <chr>           <dbl>
 #> 1  2013     1     1     5 EWR    IAH     N14228      UA               39.0
 #> 2  2013     1     1     5 LGA    IAH     N24211      UA               39.9
 #> 3  2013     1     1     5 JFK    MIA     N619AA      AA               39.0
 #> 4  2013     1     1     5 JFK    BQN     N804JB      B6               39.0
 #> 5  2013     1     1     6 LGA    ATL     N668DN      DL               39.9
 #> 6  2013     1     1     5 EWR    ORD     N39463      UA               39.0
 #> # … with 336,770 more rows, and 9 more variables: punto_rocio <dbl>,
 #> #   humedad <dbl>, direccion_viento <dbl>, velocidad_viento <dbl>,
 #> #   velocidad_rafaga <dbl>, precipitacion <dbl>, presion <dbl>,
 #> #   visibilidad <dbl>, fecha_hora <dttm>
 ```

  * Un vector de caracteres, `by = "x"`. Esto es similar a una unión natural, 
    pero usa algunas de las variables comunes. Por ejemplo, `vuelos` y `aviones` 
    tienen la variable `anio`, pero esta significa cosas distintas en cada tabla 
    por lo que queremos unir por `codigo_cola`.

 
 ```r
 vuelos2 %>%
  left_join(aviones, by = "codigo_cola")
 #> # A tibble: 336,776 x 16
 #>   anio.x   mes   dia  hora origen destino codigo_cola aerolinea anio.y tipo 
 #>    <int> <int> <int> <dbl> <chr>  <chr>   <chr>       <chr>      <int> <chr>
 #> 1   2013     1     1     5 EWR    IAH     N14228      UA          1999 Ala …
 #> 2   2013     1     1     5 LGA    IAH     N24211      UA          1998 Ala …
 #> 3   2013     1     1     5 JFK    MIA     N619AA      AA          1990 Ala …
 #> 4   2013     1     1     5 JFK    BQN     N804JB      B6          2012 Ala …
 #> 5   2013     1     1     6 LGA    ATL     N668DN      DL          1991 Ala …
 #> 6   2013     1     1     5 EWR    ORD     N39463      UA          2012 Ala …
 #> # … with 336,770 more rows, and 6 more variables: fabricante <chr>,
 #> #   modelo <chr>, motores <int>, asientos <int>, velocidad <int>,
 #> #   tipo_motor <chr>
 ```

  Nota que la variable `anio` (que aparece en los dos data frames de entrada, 
  pero que no es igual en ambos casos) se desambigua con un sufijo en el output.

  * Un vector de caracteres con nombres: `by = c("a" = "b")`. Esto va a unir la 
    variable `a` en la tabla `x` con la variabla `b` en la tabla `y`. Las variables de 
    `x` se usarán en el output.

  Por ejemplo, si queremos dibujar un mapa necesitamos combinar los datos de vuelos con los datos de aeropuertos, que contienen la ubicación de cada uno (`latitud` y `longitud`). Cada vuelo tiene un `aeropuerto` de origen y destino, por lo que necesitamos especficar cuál queremos unir:

 
 ```r
 vuelos2 %>%
  left_join(aeropuertos, c("origen" = "codigo_aeropuerto"))
 #> # A tibble: 336,776 x 15
 #>    anio   mes   dia  hora origen destino codigo_cola aerolinea nombre latitud
 #>   <int> <int> <int> <dbl> <chr>  <chr>   <chr>       <chr>     <chr>    <dbl>
 #> 1  2013     1     1     5 EWR    IAH     N14228      UA        Newar…    40.7
 #> 2  2013     1     1     5 LGA    IAH     N24211      UA        La Gu…    40.8
 #> 3  2013     1     1     5 JFK    MIA     N619AA      AA        John …    40.6
 #> 4  2013     1     1     5 JFK    BQN     N804JB      B6        John …    40.6
 #> 5  2013     1     1     6 LGA    ATL     N668DN      DL        La Gu…    40.8
 #> 6  2013     1     1     5 EWR    ORD     N39463      UA        Newar…    40.7
 #> # … with 336,770 more rows, and 5 more variables: longitud <dbl>, altura <dbl>,
 #> #   zona_horaria <dbl>, horario_verano <chr>, zona_horaria_iana <chr>
  
 vuelos2 %>%
  left_join(aeropuertos, c("destino" = "codigo_aeropuerto"))
 #> # A tibble: 336,776 x 15
 #>    anio   mes   dia  hora origen destino codigo_cola aerolinea nombre latitud
 #>   <int> <int> <int> <dbl> <chr>  <chr>   <chr>       <chr>     <chr>    <dbl>
 #> 1  2013     1     1     5 EWR    IAH     N14228      UA        Georg…    30.0
 #> 2  2013     1     1     5 LGA    IAH     N24211      UA        Georg…    30.0
 #> 3  2013     1     1     5 JFK    MIA     N619AA      AA        Miami…    25.8
 #> 4  2013     1     1     5 JFK    BQN     N804JB      B6        <NA>      NA  
 #> 5  2013     1     1     6 LGA    ATL     N668DN      DL        Harts…    33.6
 #> 6  2013     1     1     5 EWR    ORD     N39463      UA        Chica…    42.0
 #> # … with 336,770 more rows, and 5 more variables: longitud <dbl>, altura <dbl>,
 #> #   zona_horaria <dbl>, horario_verano <chr>, zona_horaria_iana <chr>
 ```
…
Las uniones de filtro unen observaciones de la misma forma que las uniones de transformación pero afectan a las observaciones, no a las variables. Existen dos tipos:

* `semi_join(x, y)` __mantiene__ todas las observaciones en `x` con coincidencias en `y`.
* `anti_join(x, y)` __descarta__ todas las observaciones en `x` con coincidencias en `y`.

Las semi uniones son útiles para unir tablas resumen previamente filtradas con las filas originales. Por ejemplo, imagina que encontraste los diez destinos más populares:


```r
destinos_populares <- vuelos %>%
  count(destino, sort = TRUE) %>%
  head(10)
destinos_populares
#> # A tibble: 10 x 2
#>   destino     n
#>   <chr>   <int>
#> 1 ORD     17283
#> 2 ATL     17215
#> 3 LAX     16174
#> 4 BOS     15508
#> 5 MCO     14082
#> 6 CLT     14064
#> # … with 4 more rows
```

Ahora quieres encontrar cada vuelo que fue a alguno de esos destinos. Puedes construir un filtro:


```r
vuelos %>%
  filter(destino %in% destinos_populares$destino)
#> # A tibble: 141,145 x 19
#>    anio   mes   dia horario_salida salida_programa… atraso_salida
#>   <int> <int> <int>          <int>            <int>         <dbl>
#> 1  2013     1     1            542              540             2
#> 2  2013     1     1            554              600            -6
#> 3  2013     1     1            554              558            -4
#> 4  2013     1     1            555              600            -5
#> 5  2013     1     1            557              600            -3
#> 6  2013     1     1            558              600            -2
#> # … with 141,139 more rows, and 13 more variables: horario_llegada <int>,
#> #   llegada_programada <int>, atraso_llegada <dbl>, aerolinea <chr>,
#> #   vuelo <int>, codigo_cola <chr>, origen <chr>, destino <chr>,
#> #   tiempo_vuelo <dbl>, distancia <dbl>, hora <dbl>, minuto <dbl>,
#> #   fecha_hora <dttm>
```

Pero es difícil extender este enfoque a varias variables. Por ejemplo, imagina que encontraste los diez días con los atrasos promedio más altos. ¿Cómo construirías un filtro que use `anio`, `mes` y `dia` para buscar coincidencias con `vuelos`? 

Puedes, en cambio, usar `semi_join()`, que conecta dos tablas de manera similar a una unión de transformación, pero en lugar de agregar nuevas columnas, mantiene las filas en `x` que tienen coincidencias en `y`:


```r
vuelos %>%
  semi_join(destinos_populares)
#> Joining, by = "destino"
#> # A tibble: 141,145 x 19
#>    anio   mes   dia horario_salida salida_programa… atraso_salida
#>   <int> <int> <int>          <int>            <int>         <dbl>
#> 1  2013     1     1            542              540             2
#> 2  2013     1     1            554              600            -6
#> 3  2013     1     1            554              558            -4
#> 4  2013     1     1            555              600            -5
#> 5  2013     1     1            557              600            -3
#> 6  2013     1     1            558              600            -2
#> # … with 141,139 more rows, and 13 more variables: horario_llegada <int>,
#> #   llegada_programada <int>, atraso_llegada <dbl>, aerolinea <chr>,
#> #   vuelo <int>, codigo_cola <chr>, origen <chr>, destino <chr>,
#> #   tiempo_vuelo <dbl>, distancia <dbl>, hora <dbl>, minuto <dbl>,
#> #   fecha_hora <dttm>
```
…
<img src="diagrams_w_text_as_path/es/join-semi-many.svg" style="display: block; margin: auto;" />

La operación inversa de `semi_join()` es `anti_join()`. `anti_join()` mantiene las filas que _no_ tienen coincidencias:

<img src="diagrams_w_text_as_path/es/join-anti.svg" style="display: block; margin: auto;" />

Las anti uniones son útiles para encontrar desajustes. Por ejemplo, al conectar `aviones` y `vuelos`, podría interesarte saber que existen muchos `vuelos` que no tienen coincidencias en `aviones`:


```r
vuelos %>%
  anti_join(aviones, by = "codigo_cola") %>%
  count(codigo_cola, sort = TRUE)
#> # A tibble: 722 x 2
#>   codigo_cola     n
#>   <chr>       <int>
#> 1 <NA>         2512
#> 2 N725MQ        575
#> 3 N722MQ        513
#> 4 N723MQ        507
#> 5 N713MQ        483
#> 6 N735MQ        396
#> # … with 716 more rows
```
…
