…
# En promedio, ¿cuántas vocales hay por palabra?
mean(str_count(palabras, "[aáeéiíoóuúü]"))
#> [1] 2.72
```

Es natural usar `str_count()` junto con `mutate()`:


```r
df %>% 
  mutate(
    vocales = str_count(palabra, "[aáeéiíoóuúü]"),
    consonantes = str_count(palabra, "[^aáeéiíoóuúü]")
  )
#> # A tibble: 1,000 x 4
#>   palabra      i vocales consonantes
#>   <chr>    <int>   <int>       <int>
#> 1 a            1       1           0
#> 2 abril        2       2           3
#> 3 acción       3       3           3
#> 4 acciones     4       4           4
#> 5 acerca       5       3           3
#> 6 actitud      6       3           4
#> # … with 994 more rows
```
…
(Como era de esperarse, nuestra heurística para detectar sustantivos es pobre, ya que también selecciona adjetivos como "mejor" y preposiciones como "de").

Si tus datos están en un tibble, suele ser más fácil utilizar `tidyr::extract()`. Funciona como `str_match()` pero requiere ponerle un nombre a las coincidencias, las que luego son puestas en columnas nuevas:


```r
tibble(oracion = oraciones) %>% 
  tidyr::extract(
    oracion, c("articulo", "sustantivo"), "(el|la|los|las|un|una|unos|unas) ([^ ]+)", 
    remove = FALSE
  )
#> # A tibble: 50 x 3
#>   oracion                                                   articulo sustantivo
#>   <chr>                                                     <chr>    <chr>     
#> 1 Las casas están construidas de ladrillos de arcilla roja. los      de        
#> 2 La caja fue arrojada al lado del camión estacionado.      el       camión    
#> 3 El domingo es la mejor parte de la semana.                la       mejor     
#> 4 Agrega a la cuenta de la tienda hasta el último centavo.  la       cuenta    
#> 5 Nueve hombres fueron contratados para excavar las ruinas. las      ruinas.   
#> 6 Pega la hoja en el fondo azul oscuro.                     la       hoja      
#> # … with 44 more rows
```
…
