7 Análisis exploratorio de datos (EDA) | R para Ciencia de Datos
…
Puedes calcular esto manualmente combinando dplyr::count() y ggplot2::cut_width():

diamantes %>% 
  count(cut_width(quilate, 0.5))
#> # A tibble: 11 x 2
#>   `cut_width(quilate, 0.5)`     n
#>   <fct>                     <int>
#> 1 [-0.25,0.25]                785
#> 2 (0.25,0.75]               29498
#> 3 (0.75,1.25]               15977
#> 4 (1.25,1.75]                5313
#> 5 (1.75,2.25]                2002
#> 6 (2.25,2.75]                 322
#> # … with 5 more rows
…
El tamaño de cada círculo en la gráfica muestra cuántas observaciones corresponden a cada combinación de valores. La covariación lucirá como una correlación fuerte entre valores específicos de x y y.

Otra estrategia es calcular el recuento con dplyr:

diamantes %>% 
  count(color, corte)
#> # A tibble: 35 x 3
#>   color corte         n
#>   <ord> <ord>     <int>
#> 1 D     Regular     163
#> 2 D     Bueno       662
#> 3 D     Muy bueno  1513
#> 4 D     Premium    1603
#> 5 D     Ideal      2834
#> 6 E     Regular     224
#> # … with 29 more rows
…
