12 Datos ordenados | R para Ciencia de Datos
…
Puedes representar los mismos datos subyacentes de múltiples formas. El ejemplo a continuación muestra los mismos datos organizados de cuatro maneras distintas. Cada dataset muestra los mismos valores de cuatro variables —pais, anio, poblacion y casos—, pero cada uno organiza los valores de forma distinta.

tabla1
#> # A tibble: 6 x 4
#>   pais        anio  casos  poblacion
#>   <chr>      <int>  <int>      <int>
#> 1 Afganistán  1999    745   19987071
#> 2 Afganistán  2000   2666   20595360
#> 3 Brasil      1999  37737  172006362
#> 4 Brasil      2000  80488  174504898
#> 5 China       1999 212258 1272915272
#> 6 China       2000 213766 1280428583
tabla2
#> # A tibble: 12 x 4
#>   pais        anio tipo         cuenta
#>   <chr>      <int> <chr>         <int>
#> 1 Afganistán  1999 casos           745
#> 2 Afganistán  1999 población  19987071
#> 3 Afganistán  2000 casos          2666
#> 4 Afganistán  2000 población  20595360
#> 5 Brasil      1999 casos         37737
#> 6 Brasil      1999 población 172006362
#> # … with 6 more rows
…
12.3.2 Datos “anchos”

pivot_wider() (pivotar a lo ancho) es lo opuesto de pivot_longer(). Se usa cuando una observación aparece en múltiples filas. Por ejemplo, considera la tabla2: una observación es un país en un año, pero cada observación aparece en dos filas.

tabla2
#> # A tibble: 12 x 4
#>   pais        anio tipo         cuenta
#>   <chr>      <int> <chr>         <int>
#> 1 Afganistán  1999 casos           745
#> 2 Afganistán  1999 población  19987071
#> 3 Afganistán  2000 casos          2666
#> 4 Afganistán  2000 población  20595360
#> 5 Brasil      1999 casos         37737
#> 6 Brasil      1999 población 172006362
#> # … with 6 more rows
…
Otra herramienta importante para hacer explícitos los valores faltantes en datos ordenados es complete():

acciones %>%
  complete(anio, trimestre)
#> # A tibble: 8 x 3
#>    anio trimestre retorno
#>   <dbl>     <dbl>   <dbl>
#> 1  2015         1    1.88
#> 2  2015         2    0.59
#> 3  2015         3    0.35
#> 4  2015         4   NA   
#> 5  2016         1   NA   
#> 6  2016         2    0.92
#> # … with 2 more rows
…
12.5.1 Ejercicios

Compara y contrasta el argumento fill que se usa en pivot_wider() con complete().

¿Qué hace el argumento de dirección en fill()?

12.6 Estudio de caso

Para finalizar el capítulo, combinemos todo lo que aprendiste para enfrentar un problema real de ordenamiento de datos. El dataset datos::oms contiene datos de tuberculosis (TB) detallados por año, país, edad, sexo y método de diagnóstico. Los datos provienen del Informe de Tuberculosis de la Organización Mundial de la Salud 2014, disponible en http://www.who.int/tb/country/data/download/en/.

Existe abundante información epidemiológica en este dataset, pero es complicado trabajar con estos datos tal como son entregados:

oms
#> # A tibble: 7,240 x 60
#>   pais  iso2  iso3   anio nuevos_fpp_h014 nuevos_fpp_h1524 nuevos_fpp_h2534
#>   <chr> <chr> <chr> <int>           <int>            <int>            <int>
#> 1 Afga… AF    AFG    1980              NA               NA               NA
#> 2 Afga… AF    AFG    1981              NA               NA               NA
#> 3 Afga… AF    AFG    1982              NA               NA               NA
#> 4 Afga… AF    AFG    1983              NA               NA               NA
#> 5 Afga… AF    AFG    1984              NA               NA               NA
#> 6 Afga… AF    AFG    1985              NA               NA               NA
#> # … with 7,234 more rows, and 53 more variables: nuevos_fpp_h3534 <int>,
#> #   nuevos_fpp_h4554 <int>, nuevos_fpp_h5564 <int>, nuevos_fpp_h65 <int>,
#> #   nuevos_fpp_m014 <int>, nuevos_fpp_m1524 <int>, nuevos_fpp_m2534 <int>,
#> #   nuevos_fpp_m3534 <int>, nuevos_fpp_m4554 <int>, nuevos_fpp_m5564 <int>,
#> #   nuevos_fpp_m65 <int>, nuevos_fpn_h014 <int>, nuevos_fpn_h1524 <int>,
#> #   nuevos_fpn_h2534 <int>, nuevos_fpn_h3534 <int>, nuevos_fpn_h4554 <int>,
#> #   nuevos_fpn_h5564 <int>, nuevos_fpn_h65 <int>, nuevos_fpn_m014 <int>,
#> #   nuevos_fpn_m1524 <int>, nuevos_fpn_m2534 <int>, nuevos_fpn_m3534 <int>,
#> #   nuevos_fpn_m4554 <int>, nuevos_fpn_m5564 <int>, nuevos_fpn_m65 <int>,
…
No sabemos aún el significado de las otras columnas, pero dada la estructura de los nombres de las variables (e.g. nuevos_fpp_h014, nuevos_ep_h014, nuevos_ep_m014) parecieran ser valores y no variables.

Necesitamos agrupar todas las columnas desde nuevos_fpp_h014 hasta recaidas_m65. No sabemos aún qué representa esto, por lo que le daremos el nombre genérico de "clave". Sabemos que las celdas representan la cuenta de casos, por lo que usaremos la variable casos.

Existen múltiples valores faltantes en la representación actual, por lo que de momento usaremos na.rm para centrarnos en los valores que están presentes.

oms1 <- oms %>%
  pivot_longer(
    cols = nuevos_fpp_h014:nuevosrecaida_m65, 
    names_to = "clave", 
    values_to = "casos", 
    values_drop_na = TRUE
  )
oms1
#> # A tibble: 76,046 x 6
#>   pais       iso2  iso3   anio clave            casos
#>   <chr>      <chr> <chr> <int> <chr>            <int>
#> 1 Afganistán AF    AFG    1997 nuevos_fpp_h014      0
#> 2 Afganistán AF    AFG    1997 nuevos_fpp_h1524    10
#> 3 Afganistán AF    AFG    1997 nuevos_fpp_h2534     6
#> 4 Afganistán AF    AFG    1997 nuevos_fpp_h3534     3
#> 5 Afganistán AF    AFG    1997 nuevos_fpp_h4554     5
#> 6 Afganistán AF    AFG    1997 nuevos_fpp_h5564     2
#> # … with 76,040 more rows

Podemos tener una noción de la estructura de los valores en la nueva columna clave si hacemos un conteo:

oms1 %>%
  count(clave)
#> # A tibble: 56 x 2
#>   clave               n
#>   <chr>           <int>
#> 1 nuevos_ep_h014   1038
#> 2 nuevos_ep_h1524  1026
#> 3 nuevos_ep_h2534  1020
#> 4 nuevos_ep_h3534  1024
#> 5 nuevos_ep_h4554  1020
#> 6 nuevos_ep_h5564  1015
#> # … with 50 more rows
…
3544 = 35 – 44 años de edad

4554 = 45 – 54 años de edad

5564 = 55 – 64 años de edad

65 = 65 o más años de edad

Necesitamos hacer un pequeño cambio al formato de los nombres de las columnas: desafortunadamente lo nombres de las columnas son ligeramente inconsistentes debido a que en lugar de nuevos_recaida tenemos nuevosrecaida (es difícil darse cuenta de esto en esta parte, pero si no lo arreglas habrá errores en los pasos siguientes). Aprenderás sobre str_replace() en cadenas de caracteres, pero la idea básica es bastante simple: reemplazar los caracteres “nuevosrecaida” por “nuevos_recaida”. Esto genera nombres de variables consistentes.

oms2 <- oms1 %>%
  mutate(clave = stringr::str_replace(clave, "nuevosrecaida", "nuevos_recaida"))
oms2
#> # A tibble: 76,046 x 6
#>   pais       iso2  iso3   anio clave            casos
#>   <chr>      <chr> <chr> <int> <chr>            <int>
#> 1 Afganistán AF    AFG    1997 nuevos_fpp_h014      0
#> 2 Afganistán AF    AFG    1997 nuevos_fpp_h1524    10
#> 3 Afganistán AF    AFG    1997 nuevos_fpp_h2534     6
#> 4 Afganistán AF    AFG    1997 nuevos_fpp_h3534     3
#> 5 Afganistán AF    AFG    1997 nuevos_fpp_h4554     5
#> 6 Afganistán AF    AFG    1997 nuevos_fpp_h5564     2
#> # … with 76,040 more rows

Podemos separar los valores en cada código aplicando separate() dos veces. La primera aplicación dividirá los códigos en cada _.

oms3 <- oms2 %>%
  separate(clave, c("nuevos", "tipo", "sexo_edad"), sep = "_")
oms3
#> # A tibble: 76,046 x 8
#>   pais       iso2  iso3   anio nuevos tipo  sexo_edad casos
#>   <chr>      <chr> <chr> <int> <chr>  <chr> <chr>     <int>
#> 1 Afganistán AF    AFG    1997 nuevos fpp   h014          0
#> 2 Afganistán AF    AFG    1997 nuevos fpp   h1524        10
#> 3 Afganistán AF    AFG    1997 nuevos fpp   h2534         6
#> 4 Afganistán AF    AFG    1997 nuevos fpp   h3534         3
#> 5 Afganistán AF    AFG    1997 nuevos fpp   h4554         5
#> 6 Afganistán AF    AFG    1997 nuevos fpp   h5564         2
#> # … with 76,040 more rows
…
oms3 %>%
  count(nuevos)
#> # A tibble: 1 x 2
#>   nuevos     n
#>   <chr>  <int>
#> 1 nuevos 76046
oms4 <- oms3 %>%
  select(-nuevos, -iso2, -iso3)

Luego separamos sexo_edad en sexo y edad dividiendo luego del primer carácter:

oms5 <- oms4 %>%
  separate(sexo_edad, c("sexo", "edad"), sep = 1)
oms5
#> # A tibble: 76,046 x 6
#>   pais        anio tipo  sexo  edad  casos
#>   <chr>      <int> <chr> <chr> <chr> <int>
#> 1 Afganistán  1997 fpp   h     014       0
#> 2 Afganistán  1997 fpp   h     1524     10
#> 3 Afganistán  1997 fpp   h     2534      6
#> 4 Afganistán  1997 fpp   h     3534      3
#> 5 Afganistán  1997 fpp   h     4554      5
#> 6 Afganistán  1997 fpp   h     5564      2
#> # … with 76,040 more rows
…
