16 Fechas y horas | R para Ciencia de Datos
…
También puedes forzar la creación de una fecha-hora desde una fecha, al proveer un huso horario:

ymd(20170131, tz = "UTC")
#> [1] "2017-01-31 UTC"

16.2.2 Desde componentes individuales

En lugar de una cadena de caracteres simple, a veces tienes los componentes individuales de una fecha-hora repartidos en múltiples columnas. Esto es lo que tenemos en los datos de vuelos:

vuelos %>%
  select(anio, mes, dia, hora, minuto)
#> # A tibble: 336,776 x 5
#>    anio   mes   dia  hora minuto
#>   <int> <int> <int> <dbl>  <dbl>
#> 1  2013     1     1     5     15
#> 2  2013     1     1     5     29
#> 3  2013     1     1     5     40
#> 4  2013     1     1     5     45
#> 5  2013     1     1     6      0
#> 6  2013     1     1     5     58
#> # … with 336,770 more rows

Para crear una fecha-hora desde este tipo de input, usa make_date() (crear fecha) para las fechas, o make_datetime() (crear fecha-hora) para las fechas-horas:

vuelos %>%
  select(anio, mes, dia, hora, minuto) %>%
  mutate(salida = make_datetime(anio, mes, dia, hora, minuto))
#> # A tibble: 336,776 x 6
#>    anio   mes   dia  hora minuto salida             
#>   <int> <int> <int> <dbl>  <dbl> <dttm>             
#> 1  2013     1     1     5     15 2013-01-01 05:15:00
#> 2  2013     1     1     5     29 2013-01-01 05:29:00
#> 3  2013     1     1     5     40 2013-01-01 05:40:00
#> 4  2013     1     1     5     45 2013-01-01 05:45:00
#> 5  2013     1     1     6      0 2013-01-01 06:00:00
#> 6  2013     1     1     5     58 2013-01-01 05:58:00
#> # … with 336,770 more rows
…
vuelos_dt <- vuelos %>%
  filter(!is.na(horario_salida), !is.na(horario_llegada)) %>%
  mutate(
    horario_salida = hacer_fechahora_100(anio, mes, dia, horario_salida),
    horario_llegada = hacer_fechahora_100(anio, mes, dia, horario_llegada),
    salida_programada = hacer_fechahora_100(anio, mes, dia, salida_programada),
    llegada_programada = hacer_fechahora_100(anio, mes, dia, llegada_programada)
  ) %>%
  select(origen, destino, starts_with("atraso"), starts_with("horario"), ends_with("programada"), tiempo_vuelo)

vuelos_dt
#> # A tibble: 328,063 x 9
#>   origen destino atraso_salida atraso_llegada horario_salida     
#>   <chr>  <chr>           <dbl>          <dbl> <dttm>             
#> 1 EWR    IAH                 2             11 2013-01-01 05:17:00
#> 2 LGA    IAH                 4             20 2013-01-01 05:33:00
#> 3 JFK    MIA                 2             33 2013-01-01 05:42:00
#> 4 JFK    BQN                -1            -18 2013-01-01 05:44:00
#> 5 LGA    ATL                -6            -25 2013-01-01 05:54:00
#> 6 EWR    ORD                -4             12 2013-01-01 05:54:00
#> # … with 328,057 more rows, and 4 more variables: horario_llegada <dttm>,
#> #   salida_programada <dttm>, llegada_programada <dttm>, tiempo_vuelo <dbl>
…
# Horarios de verano
una_pm + ddays(1)
#> [1] "2016-03-13 14:00:00 EDT"
una_pm + days(1)
#> [1] "2016-03-13 13:00:00 EDT"

Usemos los períodos para arreglar una rareza relacionada a nuestras fechas de vuelos. Algunos aviones parecen arribar a su destino antes de salir de la ciudad de Nueva York.

vuelos_dt %>%
  filter(horario_llegada < horario_salida)
#> # A tibble: 10,633 x 9
#>   origen destino atraso_salida atraso_llegada horario_salida     
#>   <chr>  <chr>           <dbl>          <dbl> <dttm>             
#> 1 EWR    BQN                 9             -4 2013-01-01 19:29:00
#> 2 JFK    DFW                59             NA 2013-01-01 19:39:00
#> 3 EWR    TPA                -2              9 2013-01-01 20:58:00
#> 4 EWR    SJU                -6            -12 2013-01-01 21:02:00
#> 5 EWR    SFO                11            -14 2013-01-01 21:08:00
#> 6 LGA    FLL               -10             -2 2013-01-01 21:20:00
#> # … with 10,627 more rows, and 4 more variables: horario_llegada <dttm>,
#> #   salida_programada <dttm>, llegada_programada <dttm>, tiempo_vuelo <dbl>
…
