23 Modelos: conceptos básicos | R para Ciencia de Datos
…
Ahora podemos usar purrr para calcular la distancia de todos los modelos definidos anteriormente. Necesitamos una función auxiliar debido a que nuestra función de distancia espera que el modelo sea un vector numérico de longitud 2.

sim1_dist <- function(a1, a2) {
  measure_distance(c(a1, a2), sim1)
}

modelos <- modelos %>%
  mutate(dist = purrr::map2_dbl(a1, a2, sim1_dist))
modelos
#> # A tibble: 250 x 3
#>       a1      a2  dist
#>    <dbl>   <dbl> <dbl>
#> 1 -15.2   0.0889  30.8
#> 2  30.1  -0.827   13.2
#> 3  16.0   2.27    13.2
#> 4 -10.6   1.38    18.7
#> 5 -19.6  -1.04    41.8
#> 6   7.98  4.59    19.3
#> # … with 244 more rows
…
23.3 Visualizando modelos

Para modelos simples, como el presentado anteriormente, puedes descubrir el patrón que captura el modelo si inspeccionas cuidadosamente la familia del modelo y los coeficientes ajustados. Si alguna vez tomaste un curso de modelado estadístico, te será habitual gastar mucho tiempo en esa tarea. Aquí, sin embargo, tomaremos otro camino. Vamos a enfocarnos en entender un modelo mirando las predicciones que genera. Esto tiene una gran ventaja: cada tipo de modelo predictivo realiza predicciones (¿qué otra podría realizar?) de modo que podemos usar el mismo conjunto de técnicas para entender cualquier tipo de modelo predictivo.

También es útil observar lo que el modelo no captura, los llamados residuos que se obtienen restando las predicciones a los datos. Los residuos son poderosos porque nos permiten usar modelos para quitar patrones fuertes y así observar tendencias sutiles que se mantengan luego de quitar los patrones más evidentes.

23.3.1 Predicciones

Para visualizar las predicciones de un modelo, podemos partir por generar una grilla de valores equidistantes que cubra la región donde se encuentran los datos. La forma más fácil de hacerlo es usando modelr::data_grid(). El primer argumento es un data frame y, por cada argumento adicional, encuentra las variables únicas y luego genera todas las combinaciones:

grid <- sim1 %>%
  data_grid(x)
grid
#> # A tibble: 10 x 1
#>       x
#>   <int>
#> 1     1
#> 2     2
#> 3     3
#> 4     4
#> 5     5
#> 6     6
#> # … with 4 more rows

(Esto será más interesante cuando se agreguen más variables al modelo.)

Luego agregamos las predicciones. Usaremos modelr::add_predictions() que toma un data frame y un modelo. Esto agrega las predicciones del modelo en una nueva columna en el data frame:

grid <- grid %>%
  add_predictions(sim1_mod)
grid
#> # A tibble: 10 x 2
#>       x  pred
#>   <int> <dbl>
#> 1     1  6.27
#> 2     2  8.32
#> 3     3 10.4 
#> 4     4 12.4 
#> 5     5 14.5 
#> 6     6 16.5 
#> # … with 4 more rows
…
23.3.2 Residuos

La otra cara de las predicciones son los residuos. Las predicciones te informan de los patrones que el modelo captura y los residuos te dicen lo que el modelo ignora. Los residuos son las distancias entre lo observado y los valores predichos que calculamos anteriormente.

Agregamos los residuos a los datos con add_residuals(), que funciona de manera similar a add_predictions(). Nota, sin embargo, que usamos el data frame original y no no una grilla manufacturada. Esto es porque para calcular los residuos se necesitan los valores de “y”.

sim1 <- sim1 %>%
  add_residuals(sim1_mod)
sim1
#> # A tibble: 30 x 3
#>       x     y  resid
#>   <int> <dbl>  <dbl>
#> 1     1  4.20 -2.07 
#> 2     1  7.51  1.24 
#> 3     1  2.13 -4.15 
#> 4     2  8.99  0.665
#> 5     2 10.2   1.92 
#> 6     2 11.3   2.97 
#> # … with 24 more rows
…
Tenemos dos predictores, por lo que necesitamos pasar ambas variables a data_grid().
Esto encontrará todos los valores únicos de x1 y x2 y luego generará todas las combinaciones,

Para generar predicciones de ambos modelos simultáneamente, podemos usar gather_predictions() que
incorpora cada predicción como una fila. El complemento de gather_predictions() es spread_predictions()
que incluye cada predicción en una nueva columna.

Esto combinado nos da:

grid <- sim3 %>%
  data_grid(x1, x2) %>%
  gather_predictions(mod1, mod2)
grid
#> # A tibble: 80 x 4
#>   model    x1 x2     pred
#>   <chr> <int> <fct> <dbl>
#> 1 mod1      1 a      1.67
#> 2 mod1      1 b      4.56
#> 3 mod1      1 c      6.48
#> 4 mod1      1 d      4.03
#> 5 mod1      2 a      1.48
#> 6 mod1      2 b      4.37
#> # … with 74 more rows
…
23.4.3 Interacciones (dos variables continuas)

Demos un vistazo al modelo equivalente para dos variables continuas. Para comenzar, se procede de igual modo que el ejemplo anterior:

mod1 <- lm(y ~ x1 + x2, data = sim4)
mod2 <- lm(y ~ x1 * x2, data = sim4)

grid <- sim4 %>%
  data_grid(
    x1 = seq_range(x1, 5),
    x2 = seq_range(x2, 5)
  ) %>%
  gather_predictions(mod1, mod2)
grid
#> # A tibble: 50 x 4
#>   model    x1    x2   pred
#>   <chr> <dbl> <dbl>  <dbl>
#> 1 mod1   -1    -1    0.996
#> 2 mod1   -1    -0.5 -0.395
#> 3 mod1   -1     0   -1.79 
#> 4 mod1   -1     0.5 -3.18 
#> 5 mod1   -1     1   -4.57 
#> 6 mod1   -0.5  -1    1.91 
#> # … with 44 more rows
…
